…
``` r
Apps <- read_parquet('/Users/Brock/Downloads/app_data_sample.parquet')
Edges <- read.csv('/Users/Brock/Downloads/edges_sample.csv')
```

## Gender

``` r
exnames <- Apps %>% distinct(examiner_name_first)

exnames
```

    ## # A tibble: 2,595 x 1
    ##    examiner_name_first
    ##    <chr>              
    ##  1 JACQUELINE         
    ##  2 BEKIR              
    ##  3 CYNTHIA            
    ##  4 MARY               
    ##  5 MICHAEL            
    ##  6 LINDA              
    ##  7 KARA               
    ##  8 VANESSA            
    ##  9 TERESA             
    ## 10 SUN                
    ## # ... with 2,585 more rows
…
